Library\Bee\artifacts\mvdfrm\Unity.2D.Animation.Editor.ref.dll_A13BD6459BB26E0B.mvfrm
Library\Bee\artifacts\mvdfrm\Unity.2D.Animation.Runtime.ref.dll_6747672A37E369F0.mvfrm
Library\Bee\artifacts\mvdfrm\Unity.2D.Common.Editor.ref.dll_BD59A5CBF9D52B22.mvfrm
Library\Bee\artifacts\mvdfrm\Unity.2D.Common.Runtime.ref.dll_77798F371487C3E9.mvfrm
Library\Bee\artifacts\mvdfrm\Unity.2D.IK.Editor.ref.dll_F60355C05B38283B.mvfrm
Library\Bee\artifacts\mvdfrm\Unity.2D.IK.Runtime.ref.dll_16F22BA31A1D34C0.mvfrm
Library\Bee\artifacts\mvdfrm\Unity.2D.Path.Editor.ref.dll_583975DB52C81A78.mvfrm
Library\Bee\artifacts\mvdfrm\Unity.2D.PixelPerfect.Editor.ref.dll_500201FE28D4C516.mvfrm
Library\Bee\artifacts\mvdfrm\Unity.2D.PixelPerfect.ref.dll_88C9F7A57CCB704B.mvfrm
Library\Bee\artifacts\mvdfrm\Unity.2D.Psdimporter.Editor.ref.dll_B76AC6E0D8C9839C.mvfrm
Library\Bee\artifacts\mvdfrm\Unity.2D.Sprite.Editor.ref.dll_DDBAA27A82CE9E28.mvfrm
Library\Bee\artifacts\mvdfrm\Unity.2D.SpriteShape.Editor.ref.dll_1AEEC37E15960FB3.mvfrm
Library\Bee\artifacts\mvdfrm\Unity.2D.SpriteShape.Runtime.ref.dll_BCD600250821B9C8.mvfrm
Library\Bee\artifacts\mvdfrm\Unity.2D.Tilemap.Editor.ref.dll_436C0E2610862891.mvfrm
Library\Bee\artifacts\mvdfrm\Unity.2D.Tilemap.Extras.Editor.ref.dll_8DA00406C36CC6AA.mvfrm
Library\Bee\artifacts\mvdfrm\Unity.2D.Tilemap.Extras.ref.dll_371E356D6F5B6577.mvfrm
Library\Bee\artifacts\mvdfrm\Unity.Burst.Editor.ref.dll_E2F92DAB6C167CC9.mvfrm
Library\Bee\artifacts\mvdfrm\Unity.Burst.ref.dll_F30DFA20C0DD1968.mvfrm
Library\Bee\artifacts\mvdfrm\Unity.InternalAPIEditorBridge.001.ref.dll_C275F416F58A86FE.mvfrm
Library\Bee\artifacts\mvdfrm\Unity.InternalAPIEngineBridge.001.ref.dll_B4F0ACC15A996E43.mvfrm
Library\Bee\artifacts\mvdfrm\Unity.Mathematics.Editor.ref.dll_9A20CFD48BC11F43.mvfrm
Library\Bee\artifacts\mvdfrm\Unity.Mathematics.ref.dll_E8EFDB1B8D5C174E.mvfrm
Library\Bee\artifacts\mvdfrm\Unity.PlasticSCM.Editor.ref.dll_257AEB342BE77856.mvfrm
Library\Bee\artifacts\mvdfrm\Unity.Rider.Editor.ref.dll_9B5591808ABA37AF.mvfrm
Library\Bee\artifacts\mvdfrm\Unity.TextMeshPro.Editor.ref.dll_159E061D77A10B86.mvfrm
Library\Bee\artifacts\mvdfrm\Unity.TextMeshPro.ref.dll_84A4293DBDD182DB.mvfrm
Library\Bee\artifacts\mvdfrm\Unity.Timeline.Editor.ref.dll_0D3D3C0B73557612.mvfrm
Library\Bee\artifacts\mvdfrm\Unity.Timeline.ref.dll_621CDDF9C514DF8F.mvfrm
Library\Bee\artifacts\mvdfrm\Unity.VSCode.Editor.ref.dll_3628369EB48E4C19.mvfrm
Library\Bee\artifacts\mvdfrm\Unity.VisualScripting.Core.Editor.ref.dll_EDC8690F57C5BDFD.mvfrm
Library\Bee\artifacts\mvdfrm\Unity.VisualScripting.Core.ref.dll_D75DF4EA1AFE54F4.mvfrm
Library\Bee\artifacts\mvdfrm\Unity.VisualScripting.Flow.Editor.ref.dll_6AF951BE66A4493E.mvfrm
Library\Bee\artifacts\mvdfrm\Unity.VisualScripting.Flow.ref.dll_1E6ED5409D07C9A3.mvfrm
Library\Bee\artifacts\mvdfrm\Unity.VisualScripting.SettingsProvider.Editor.ref.dll_A1A44354E0B583A8.mvfrm
Library\Bee\artifacts\mvdfrm\Unity.VisualScripting.Shared.Editor.ref.dll_9669F6EBFF6DFFB7.mvfrm
Library\Bee\artifacts\mvdfrm\Unity.VisualScripting.State.Editor.ref.dll_E03858E727F23F6F.mvfrm
Library\Bee\artifacts\mvdfrm\Unity.VisualScripting.State.ref.dll_D91762B7076BE462.mvfrm
Library\Bee\artifacts\mvdfrm\Unity.VisualStudio.Editor.ref.dll_3A975DBA53ABA4AD.mvfrm
Library\Bee\artifacts\mvdfrm\UnityEditor.UI.ref.dll_4C98D3F7040CD4F5.mvfrm
Library\Bee\artifacts\mvdfrm\UnityEngine.UI.ref.dll_08FEAA520A2EFD60.mvfrm
Library\Bee\artifacts\mvdfrm\UnityEditor.CoreModule.dll_5E795AA852E153EA.mvfrm
Library\Bee\artifacts\mvdfrm\UnityEditor.DeviceSimulatorModule.dll_AC2572782B39E3F7.mvfrm
Library\Bee\artifacts\mvdfrm\UnityEditor.DiagnosticsModule.dll_99C010C823F9C085.mvfrm
Library\Bee\artifacts\mvdfrm\UnityEditor.dll_EC2B8F82F011518B.mvfrm
Library\Bee\artifacts\mvdfrm\UnityEditor.GraphViewModule.dll_F341C531FABC85BC.mvfrm
Library\Bee\artifacts\mvdfrm\UnityEditor.PackageManagerUIModule.dll_35DFD849408860C6.mvfrm
Library\Bee\artifacts\mvdfrm\UnityEditor.QuickSearchModule.dll_24CF91D57CD0BCDE.mvfrm
Library\Bee\artifacts\mvdfrm\UnityEditor.SceneTemplateModule.dll_E6A363D57FC9631F.mvfrm
Library\Bee\artifacts\mvdfrm\UnityEditor.TextCoreFontEngineModule.dll_0AECDF4875767628.mvfrm
Library\Bee\artifacts\mvdfrm\UnityEditor.TextCoreTextEngineModule.dll_52D515BA04FA2F46.mvfrm
Library\Bee\artifacts\mvdfrm\UnityEditor.UIBuilderModule.dll_47CA724E6D74FEF0.mvfrm
Library\Bee\artifacts\mvdfrm\UnityEditor.UIElementsModule.dll_44327A92055A9EE6.mvfrm
Library\Bee\artifacts\mvdfrm\UnityEditor.UIElementsSamplesModule.dll_FCD1DF29DD4532E7.mvfrm
Library\Bee\artifacts\mvdfrm\UnityEditor.UIServiceModule.dll_80BC83B156AC4F0A.mvfrm
Library\Bee\artifacts\mvdfrm\UnityEditor.UnityConnectModule.dll_FD244358ECF5F7A0.mvfrm
Library\Bee\artifacts\mvdfrm\UnityEngine.AccessibilityModule.dll_1948CF6C803F8ABC.mvfrm
Library\Bee\artifacts\mvdfrm\UnityEngine.AIModule.dll_CA90A7863204C8FE.mvfrm
Library\Bee\artifacts\mvdfrm\UnityEngine.AndroidJNIModule.dll_C27B63654E7A0DBC.mvfrm
Library\Bee\artifacts\mvdfrm\UnityEngine.AnimationModule.dll_C1C7415AD5195A62.mvfrm
Library\Bee\artifacts\mvdfrm\UnityEngine.ARModule.dll_84036C898F2227C7.mvfrm
Library\Bee\artifacts\mvdfrm\UnityEngine.AssetBundleModule.dll_68B8C4C6DF3771D0.mvfrm
Library\Bee\artifacts\mvdfrm\UnityEngine.AudioModule.dll_8576B805CEAA52D4.mvfrm
Library\Bee\artifacts\mvdfrm\UnityEngine.ClothModule.dll_EC5F1500A8C731B8.mvfrm
Library\Bee\artifacts\mvdfrm\UnityEngine.ClusterInputModule.dll_7CC0B86E9E7DCA66.mvfrm
Library\Bee\artifacts\mvdfrm\UnityEngine.ClusterRendererModule.dll_B1D234E99AF4F17B.mvfrm
Library\Bee\artifacts\mvdfrm\UnityEngine.CoreModule.dll_819A2DFAFAE6BF15.mvfrm
Library\Bee\artifacts\mvdfrm\UnityEngine.CrashReportingModule.dll_ED4D1E55B89B11CD.mvfrm
Library\Bee\artifacts\mvdfrm\UnityEngine.DirectorModule.dll_A95F2F4786B3AA72.mvfrm
Library\Bee\artifacts\mvdfrm\UnityEngine.dll_1ECFD65B4E84DE70.mvfrm
Library\Bee\artifacts\mvdfrm\UnityEngine.DSPGraphModule.dll_AEB090B0F9147B93.mvfrm
Library\Bee\artifacts\mvdfrm\UnityEngine.GameCenterModule.dll_ECC8AD8014BAFEAD.mvfrm
Library\Bee\artifacts\mvdfrm\UnityEngine.GIModule.dll_62CCF093CDB3B118.mvfrm
Library\Bee\artifacts\mvdfrm\UnityEngine.GridModule.dll_5F0B49E9133B550C.mvfrm
Library\Bee\artifacts\mvdfrm\UnityEngine.HotReloadModule.dll_430FFF60B04C75E4.mvfrm
Library\Bee\artifacts\mvdfrm\UnityEngine.ImageConversionModule.dll_1DC4329A1D19A96F.mvfrm
Library\Bee\artifacts\mvdfrm\UnityEngine.IMGUIModule.dll_BDD6576C94DBE6B5.mvfrm
Library\Bee\artifacts\mvdfrm\UnityEngine.InputLegacyModule.dll_F9FDDFE5772927C1.mvfrm
Library\Bee\artifacts\mvdfrm\UnityEngine.InputModule.dll_EBEC7FB644E27778.mvfrm
Library\Bee\artifacts\mvdfrm\UnityEngine.JSONSerializeModule.dll_796058A87F7AEB46.mvfrm
Library\Bee\artifacts\mvdfrm\UnityEngine.LocalizationModule.dll_BB0D82C135F9BD5F.mvfrm
Library\Bee\artifacts\mvdfrm\UnityEngine.ParticleSystemModule.dll_405F67A226AC9D5B.mvfrm
Library\Bee\artifacts\mvdfrm\UnityEngine.PerformanceReportingModule.dll_82397DFCAE28A8D4.mvfrm
Library\Bee\artifacts\mvdfrm\UnityEngine.Physics2DModule.dll_0E6D314B761651F7.mvfrm
Library\Bee\artifacts\mvdfrm\UnityEngine.PhysicsModule.dll_59D22BACA4296025.mvfrm
Library\Bee\artifacts\mvdfrm\UnityEngine.ProfilerModule.dll_DBA5687E200D317F.mvfrm
Library\Bee\artifacts\mvdfrm\UnityEngine.RuntimeInitializeOnLoadManagerInitializerModule.dll_591D11652E0630C0.mvfrm
Library\Bee\artifacts\mvdfrm\UnityEngine.ScreenCaptureModule.dll_9348062D93E717A8.mvfrm
Library\Bee\artifacts\mvdfrm\UnityEngine.SharedInternalsModule.dll_A1D5716F9447A4BF.mvfrm
Library\Bee\artifacts\mvdfrm\UnityEngine.SpriteMaskModule.dll_D5F52010362A9427.mvfrm
Library\Bee\artifacts\mvdfrm\UnityEngine.SpriteShapeModule.dll_8219F22194D9A9DA.mvfrm
Library\Bee\artifacts\mvdfrm\UnityEngine.StreamingModule.dll_765C2EAB24A111A0.mvfrm
Library\Bee\artifacts\mvdfrm\UnityEngine.SubstanceModule.dll_530742F46FF40FAE.mvfrm
Library\Bee\artifacts\mvdfrm\UnityEngine.SubsystemsModule.dll_40A2867204727C3A.mvfrm
Library\Bee\artifacts\mvdfrm\UnityEngine.TerrainModule.dll_7418A71B79E7A913.mvfrm
Library\Bee\artifacts\mvdfrm\UnityEngine.TerrainPhysicsModule.dll_40DA10753FEF97E8.mvfrm
Library\Bee\artifacts\mvdfrm\UnityEngine.TextCoreFontEngineModule.dll_894C5A9B887434F3.mvfrm
Library\Bee\artifacts\mvdfrm\UnityEngine.TextCoreTextEngineModule.dll_D134910D17F7EE11.mvfrm
Library\Bee\artifacts\mvdfrm\UnityEngine.TextRenderingModule.dll_BC8778384B1E979D.mvfrm
Library\Bee\artifacts\mvdfrm\UnityEngine.TilemapModule.dll_13150E9C91A48A1C.mvfrm
Library\Bee\artifacts\mvdfrm\UnityEngine.TLSModule.dll_BBFB833ECEAB9FB9.mvfrm
Library\Bee\artifacts\mvdfrm\UnityEngine.UIElementsModule.dll_44E0E7DA079EB831.mvfrm
Library\Bee\artifacts\mvdfrm\UnityEngine.UIElementsNativeModule.dll_80598CDEB200D0E8.mvfrm
Library\Bee\artifacts\mvdfrm\UnityEngine.UIModule.dll_C60445B38E4BCEAA.mvfrm
Library\Bee\artifacts\mvdfrm\UnityEngine.UmbraModule.dll_004B641E5BD0FE47.mvfrm
Library\Bee\artifacts\mvdfrm\UnityEngine.UNETModule.dll_144075E447F5B48E.mvfrm
Library\Bee\artifacts\mvdfrm\UnityEngine.UnityAnalyticsCommonModule.dll_1D783B40C8114732.mvfrm
Library\Bee\artifacts\mvdfrm\UnityEngine.UnityAnalyticsModule.dll_5FFED86BD2D3EF57.mvfrm
Library\Bee\artifacts\mvdfrm\UnityEngine.UnityConnectModule.dll_EA83C767E77DF84B.mvfrm
Library\Bee\artifacts\mvdfrm\UnityEngine.UnityCurlModule.dll_F4E3E28C452D4C4F.mvfrm
Library\Bee\artifacts\mvdfrm\UnityEngine.UnityTestProtocolModule.dll_B894951C3740883D.mvfrm
Library\Bee\artifacts\mvdfrm\UnityEngine.UnityWebRequestAssetBundleModule.dll_79A8F5FC7E353B68.mvfrm
Library\Bee\artifacts\mvdfrm\UnityEngine.UnityWebRequestAudioModule.dll_FA35D1DB3493736C.mvfrm
Library\Bee\artifacts\mvdfrm\UnityEngine.UnityWebRequestModule.dll_2F633A44280E43EE.mvfrm
Library\Bee\artifacts\mvdfrm\UnityEngine.UnityWebRequestTextureModule.dll_67EB5D9500B1EEC1.mvfrm
Library\Bee\artifacts\mvdfrm\UnityEngine.UnityWebRequestWWWModule.dll_9BF6D66907B7AA7D.mvfrm
Library\Bee\artifacts\mvdfrm\UnityEngine.VehiclesModule.dll_212228C700DD7A0D.mvfrm
Library\Bee\artifacts\mvdfrm\UnityEngine.VFXModule.dll_3CDA1BADA5190926.mvfrm
Library\Bee\artifacts\mvdfrm\UnityEngine.VideoModule.dll_AA803C70913C6E79.mvfrm
Library\Bee\artifacts\mvdfrm\UnityEngine.VirtualTexturingModule.dll_A4E6414D8AAF5173.mvfrm
Library\Bee\artifacts\mvdfrm\UnityEngine.VRModule.dll_18D66C3930065422.mvfrm
Library\Bee\artifacts\mvdfrm\UnityEngine.WindModule.dll_F7E909238C1D3D7E.mvfrm
Library\Bee\artifacts\mvdfrm\UnityEngine.XRModule.dll_4B952F3DB940A180.mvfrm
Library\Bee\artifacts\mvdfrm\Unity.Burst.Cecil.dll_95EE4989EBE10F13.mvfrm
Library\Bee\artifacts\mvdfrm\Unity.Burst.Cecil.Mdb.dll_0C6320664B33FF10.mvfrm
Library\Bee\artifacts\mvdfrm\Unity.Burst.Cecil.Pdb.dll_23B598D5C9E90093.mvfrm
Library\Bee\artifacts\mvdfrm\Unity.Burst.Cecil.Rocks.dll_932D5FB86A70A113.mvfrm
Library\Bee\artifacts\mvdfrm\Unity.Burst.Unsafe.dll_604E160873632890.mvfrm
Library\Bee\artifacts\mvdfrm\Unity.VisualScripting.Antlr3.Runtime.dll_B0E4A2283AA7C74F.mvfrm